Port_SetQuadType@pInput 37 0 COMRAM 1
__CFG_XINST$OFF 0 0 ABS 0
Port_SetQuadType@Output 3B 0 COMRAM 1
__end_of_GetPortTRIS 117A4 0 CODE 0
__end_of_GetPortPORT 118A8 0 CODE 0
___awdiv@counter 5 0 COMRAM 1
_l F9 0 BANK0 1
Port_CheckPairType@pDrive 2A 0 COMRAM 1
_w FA 0 BANK0 1
__end_of_InitList FD05 0 MEDIUMCONST 0
__S0 1FFFE 0 ABS 0
__S1 56C 0 ABS 0
__S2 0 0 ABS 0
__size_of_Byte_SetQuad 0 0 ABS 0
_RemoteWakeup A4 0 BANK0 1
_line_coding D0 0 BANK0 1
_UIE F5C 0 ABS 0
__size_of_SPI_Send 0 0 ABS 0
_endpoint_number A2 0 BANK0 1
_BDT 400 0 ABS 1
_UIR F62 0 ABS 0
_SSP1STATbits FC7 0 ABS 0
_SSP2STATbits F6D 0 ABS 0
__Hintentry 0 0 ABS 0
__Lintentry 0 0 ABS 0
__size_of_Byte_SetZone 0 0 ABS 0
LCD_Fill@i C 0 COMRAM 1
__size_of_Byte_SetByte 0 0 ABS 0
__end_of_configDescriptor1 FF49 0 MEDIUMCONST 0
__size_of_Byte_SetPair 0 0 ABS 0
strcspn@i A 0 COMRAM 1
_dummy_encapsulated_cmd_response 1DB 0 BANK1 1
__end_of___awdiv 11722 0 CODE 0
LCD_Fill@j D 0 COMRAM 1
_Port_SetPinType 10B4E 0 CODE 0
GetPortProperties@pInput 3 0 COMRAM 1
_UEP0 F4C 0 ABS 0
_SPI1 1A8 0 BANK1 1
_UEP1 F4D 0 ABS 0
_SPI2 A7 0 BANK0 1
_PIR1 F9E 0 ABS 0
_PIR2 FA1 0 ABS 0
_Console_Render 1099C 0 CODE 0
_PIR3 FA4 0 ABS 0
__size_of_strcspn 0 0 ABS 0
SPI_Send@pInput 1 0 COMRAM 1
_LATA F89 0 ABS 0
_UCFG F5F 0 ABS 0
_UEIE F5D 0 ABS 0
_LATB F8A 0 ABS 0
_LATC F8B 0 ABS 0
_LATD F8C 0 ABS 0
_LATE F8D 0 ABS 0
_LATF F8E 0 ABS 0
_LATG F8F 0 ABS 0
_lBufferX 5C 0 COMRAM 1
LCD_Init@i 38 0 COMRAM 1
_UCON F65 0 ABS 0
__end_of_LCD_Init 110B8 0 CODE 0
_UEIR F63 0 ABS 0
Console_MakeField@Index A 0 COMRAM 1
Byte_SetZone@pValue 6 0 COMRAM 1
_lBufferY 5B 0 COMRAM 1
__size_of_SPI_DisableISR 0 0 ABS 0
__end_of_USB_CD_Ptr FD26 0 MEDIUMCONST 0
_BT_load_string 11E2E 0 CODE 0
__end_of_Console_NewLine 119A6 0 CODE 0
_main 119A6 0 CODE 0
__end_of_sd001 FFB1 0 MEDIUMCONST 0
_GetPortTRIS 11722 0 CODE 0
_pDst 93 0 BANK0 1
___sp 0 0 STACK 2
_sd000 FFC3 0 MEDIUMCONST 0
_sd001 FF7D 0 MEDIUMCONST 0
_sd002 FF49 0 MEDIUMCONST 0
start 1400 0 CODE 0
Port_CheckQuadType@Pair1 34 0 COMRAM 1
Port_CheckPairType@Pin1 2B 0 COMRAM 1
Port_Set@pInput 10 0 COMRAM 1
Port_CheckQuadType@Pair2 35 0 COMRAM 1
Port_CheckPairType@Pin2 2C 0 COMRAM 1
_Byte_GetBit 1242A 0 CODE 0
_SPI_Send 11BE4 0 CODE 0
__size_of_GetPortProperties 0 0 ABS 0
SPI_Init@pInput 34 0 COMRAM 1
__end_of_PortE_Property FFCD 0 MEDIUMCONST 0
__size_of_PortProperty_Valid 0 0 ABS 0
printf@ap 1A 0 COMRAM 1
_USBDeferINDataStagePackets 9C 0 BANK0 1
_USBBusIsSuspended A3 0 BANK0 1
Port_CheckPairType@pInput 27 0 COMRAM 1
_Byte_SetBit 12070 0 CODE 0
_TRISA F92 0 ABS 0
_TRISB F93 0 ABS 0
_TRISC F94 0 ABS 0
_PORTA F80 0 ABS 0
_TRISD F95 0 ABS 0
_PORTB F81 0 ABS 0
__Hirdata 0 0 CODE 0
_TRISE F96 0 ABS 0
__Lirdata 0 0 CODE 0
_PORTC F82 0 ABS 0
__HRAM 0 0 ABS 0
_TRISF F97 0 ABS 0
_PORTD F83 0 ABS 0
__LRAM 1 0 ABS 0
_TRISG F98 0 ABS 0
_PORTE F84 0 ABS 0
_UADDR F5E 0 ABS 0
_PORTF F85 0 ABS 0
_PORTG F86 0 ABS 0
__end_of_LCD_FillRectangle 12070 0 CODE 0
LCD_DrawField@pPoint 15 0 COMRAM 1
_USTAT F64 0 ABS 0
_MASKS FD15 0 MEDIUMCONST 0
Port_CheckPairType@Output 2D 0 COMRAM 1
Byte_GetZone@Output 9 0 COMRAM 1
__CFG_WDTPS$32768 0 0 ABS 0
Console_SetBackcolour@pColour 1 0 COMRAM 1
__Hconfig 1FFFE 0 CONFIG 0
_LCD_Fill 12106 0 CODE 0
__Lconfig 1FFF8 0 CONFIG 0
_Configure_GPIOs 11DD8 0 CODE 0
_MXK_Dequeue 125BC 0 CODE 0
Port_Init@i 46 0 COMRAM 1
_PortA 1D1 0 BANK1 1
_CDCDataInHandle 8F 0 BANK0 1
_PortB 1C7 0 BANK1 1
_PortC BC 0 BANK0 1
_PortD B2 0 BANK0 1
_PortE 1BD 0 BANK1 1
_PortF C6 0 BANK0 1
_PortG 1B3 0 BANK1 1
_Console_NewLine 1192A 0 CODE 0
_Byte_SetByte 1408 0 CODE 0
LCD_DrawField@ymax 22 0 COMRAM 1
__size_of_MXK_Release 0 0 ABS 0
__end_of_Port_SetPinType 10CD4 0 CODE 0
__Hbigram 0 0 ABS 0
__Lbigram 0 0 ABS 0
__Hrparam 0 0 COMRAM 1
__Lrparam 0 0 COMRAM 1
_Mode_Set 125DC 0 CODE 0
__Hram 0 0 ABS 0
__Lram 0 0 ABS 0
__size_of_Console_Tab 0 0 ABS 0
__Hcomram 0 0 ABS 0
_putch 125F6 0 CODE 0
__Lcomram 0 0 ABS 0
__size_of_Console_SetBackcolour 0 0 ABS 0
__end_of_SPI_DisableISR 12478 0 CODE 0
__Hsfr 0 0 ABS 0
_clearall 95 0 BANK0 1
__Lsfr 0 0 ABS 0
strtok@sp 89 0 BANK0 1
?_GetPortTRIS 1 0 COMRAM 1
__end_of_Font5x7 FF06 0 MEDIUMCONST 0
_Port_Set 10360 0 CODE 0
__Hbss 0 0 RAM 1
__CFG_STVREN$ON 0 0 ABS 0
__Lbss 0 0 RAM 1
___param_bank 0 0 ABS 0
__Hnvrram 0 0 COMRAM 1
__Lnvrram 0 0 COMRAM 1
LCD_DrawField@pSize 19 0 COMRAM 1
_Port_SetType 107E4 0 CODE 0
__size_of_strtok 0 0 ABS 0
_lCBuffer 100 0 BANK1 1
Byte_GetZone@MASK 7 0 COMRAM 1
_LCD_Init 10F7E 0 CODE 0
_SPI_Init 10000 0 CODE 0
_MXK_Init 110B8 0 CODE 0
Byte_SetByte@pValue 3 0 COMRAM 1
_RCREG1 FAF 0 ABS 0
__size_of_MXK_Init 0 0 ABS 0
_TXREG1 FAE 0 ABS 0
_SPBRG1 FB0 0 ABS 0
Byte_SetZone@MASK B 0 COMRAM 1
__size_of_LCD_Fill 0 0 ABS 0
_SetupPkt 430 0 ABS 1
Byte_GetBit@Output 5 0 COMRAM 1
__end_of_putch 12600 0 CODE 0
_outPipes 60 0 BANK0 1
__size_of_Port_Set 0 0 ABS 0
__end_of_Configure_GPIOs 11E2E 0 CODE 0
__size_of_Console_NewLine 0 0 ABS 0
_PIE1bits F9D 0 ABS 0
_pBDTEntryOut 69 0 BANK0 1
_PIE2bits FA0 0 ABS 0
_PIE3bits FA3 0 ABS 0
_UEP0bits F4C 0 ABS 0
_PIR1bits F9E 0 ABS 0
_IPR1bits F9F 0 ABS 0
_PIR2bits FA1 0 ABS 0
_BT_get_char 125CC 0 CODE 0
_PIR3bits FA4 0 ABS 0
_IPR3bits FA5 0 ABS 0
_USBInputBuffer 286 0 BANK2 1
Port_Init@pInput 41 0 COMRAM 1
Console_FormFeed@x 3 0 COMRAM 1
Console_FormFeed@y 4 0 COMRAM 1
__Hintsave_regs 0 0 BIGRAM 1
_Clear_String 124DA 0 CODE 0
__Lintsave_regs 0 0 BIGRAM 1
_delay_ms 11E84 0 CODE 0
?_strcspn 5 0 COMRAM 1
_RCONbits FD0 0 ABS 0
_UCONbits F65 0 ABS 0
__end_of_BT_get_char 125DC 0 CODE 0
__end_of_lcdDisplay 12278 0 CODE 0
__Hbigbss 0 0 BIGRAM 1
__Lbigbss 0 0 BIGRAM 1
?___awdiv 1 0 COMRAM 1
__Hintret 0 0 ABS 0
__Lintret 0 0 ABS 0
__Hramtop 1000 0 RAM 0
delay_ms@u 3 0 COMRAM 1
__Lramtop 1000 0 RAM 0
__Hstruct 0 0 COMRAM 1
__Lstruct 0 0 COMRAM 1
__Hbigdata 0 0 BIGRAM 1
__Lbigdata 0 0 BIGRAM 1
__size_of_BluetoothInit 0 0 ABS 0
__Hmediumconst 10000 0 MEDIUMCONST 0
__end_of_strcspn 12022 0 CODE 0
__Lmediumconst FC52 0 MEDIUMCONST 0
__end_of_LCD_DrawField 11B0C 0 CODE 0
_InitList FC53 0 MEDIUMCONST 0
_Console_MakeField$13206 E 0 COMRAM 1
Port_CheckQuadType@pQuad 32 0 COMRAM 1
__Hfarbss 0 0 FARRAM 0
__Lfarbss 0 0 FARRAM 0
__pmediumconst FC52 0 MEDIUMCONST 0
Byte_GetBit@pBit 3 0 COMRAM 1
_pBDTEntryEP0OutNext 57 0 COMRAM 1
__Hintcode 1400 0 CODE 0
__Lintcode 1400 0 CODE 0
__Hfardata 0 0 FARRAM 0
__Lfardata 0 0 FARRAM 0
__size_of_Port_CheckQuadType 0 0 ABS 0
__size_of_Console_FormFeed 0 0 ABS 0
__end_of_Console_ClearCursor 123A8 0 CODE 0
__CFG_CPUDIV$OSC1 0 0 ABS 0
__CFG_MSSPMSK$MSK5 0 0 ABS 0
delay_us@u 3 0 COMRAM 1
__Habs1 0 0 ABS 0
__Labs1 0 0 ABS 0
Byte_SetBit@pBit 3 0 COMRAM 1
__end_of_Console_ResetCursor 12514 0 CODE 0
LCD_FillRectangle@i 16 0 COMRAM 1
LCD_FillRectangle@j 17 0 COMRAM 1
_delay_us 1218E 0 CODE 0
__end_of_Word_GetPair 12378 0 CODE 0
_USBDeferOUTDataStagePackets 9B 0 BANK0 1
Console_Render@F6956 E2 0 BANK0 1
__size_of_LCD_Write 0 0 ABS 0
__size_of_Console_Init 0 0 ABS 0
__end_of_SPI_MaxSpeed 11D7E 0 CODE 0
__HnvFARRAM 0 0 FARRAM 0
__LnvFARRAM 0 0 FARRAM 0
Word_GetPair@pPair F 0 COMRAM 1
Byte_GetPair@pPair C 0 COMRAM 1
Byte_SetQuad@pInput C 0 COMRAM 1
LCD_DrawField@pField 13 0 COMRAM 1
Word_SetPair@pPair 12 0 COMRAM 1
Byte_SetPair@pPair E 0 COMRAM 1
__size_of_Port_CheckPairType 0 0 ABS 0
Port_SetType@Output 40 0 COMRAM 1
SPI_MaxSpeed@pInput 10 0 COMRAM 1
LCD_DrawRectangle@p2 DB 0 BANK0 1
__size_of_Port_SetPin 0 0 ABS 0
LCD_DrawRectangle@p4 D7 0 BANK0 1
_Console_IncrementCursor 11EDA 0 CODE 0
__end_of_sd002 FF7D 0 MEDIUMCONST 0
_Set_Addr_Window 118A8 0 CODE 0
putch@c 15 0 COMRAM 1
_Bus_State F4 0 BANK0 1
__end_of_Clear_String 124F8 0 CODE 0
__end_of_MXK_BlockSwitchTo 122E4 0 CODE 0
_GetPortPORT 11826 0 CODE 0
_LCD_Write 1252E 0 CODE 0
__end_of_PortF_Property FFCB 0 MEDIUMCONST 0
__end_of_memset 12402 0 CODE 0
__size_of_Port_CheckPortType 0 0 ABS 0
__end_of_Set_Addr_Window 1192A 0 CODE 0
__Hdata 0 0 ABS 0
__Ldata 0 0 ABS 0
_gLineSize E6 0 BANK0 1
BT_get_string@placeholder 23 0 COMRAM 1
_change F5 0 BANK0 1
_gCharSize EA 0 BANK0 1
__end_of_LCD_Word_Write 125BC 0 CODE 0
_Console_Tab 114FC 0 CODE 0
_Port_CheckPairType 11D7E 0 CODE 0
stackhi F3F 0 ABS 0
__end_of_BT_load_char 125F6 0 CODE 0
_lQueue 7A 0 BANK0 1
strchr@chr 3 0 COMRAM 1
Console_Render@y 2C 0 COMRAM 1
__end_of_delay_us 121CE 0 CODE 0
__size_of_lcdDisplay 0 0 ABS 0
_Console_ResetCursor 124F8 0 CODE 0
_printf 113CC 0 CODE 0
__Htemp 0 0 COMRAM 1
__Ltemp 0 0 COMRAM 1
stacklo 56C 0 ABS 0
__Hrbit 0 0 COMRAM 1
__Lrbit 0 0 COMRAM 1
_strchr 1214A 0 CODE 0
Port_Set@pValue 12 0 COMRAM 1
_strtok 111CE 0 CODE 0
__Hinit 1404 0 CODE 0
__Linit 1400 0 CODE 0
__Hintcodelo 1400 0 CODE 0
__Lintcodelo 1400 0 CODE 0
___wmul 12478 0 CODE 0
main@pbuffer 49 0 COMRAM 1
Port_SetPin@Type 14 0 COMRAM 1
_Byte_SetQuad 1249E 0 CODE 0
_memset 123D6 0 CODE 0
__Hrbss 0 0 COMRAM 1
__end_of_main 11A20 0 CODE 0
__end_of_BT_get_string 114FC 0 CODE 0
__Lrbss 0 0 COMRAM 1
_strspn 11F82 0 CODE 0
__size_of_Port_SetPinType 0 0 ABS 0
__size_of_Set_Rotation 0 0 ABS 0
Word_SetPair@pValue 13 0 COMRAM 1
Byte_SetPair@pValue F 0 COMRAM 1
__Htext 0 0 ABS 0
__Ltext 0 0 ABS 0
_Console_SetBackcolour 12600 0 CODE 0
__size_of_Port_Init 0 0 ABS 0
__size_of_Clear_String 0 0 ABS 0
__size_of_Port_SetType 0 0 ABS 0
___wmul@multiplier 1 0 COMRAM 1
__HdataBANK0 0 0 ABS 0
__LdataBANK0 0 0 ABS 0
__end_of_strchr 1218E 0 CODE 0
__size_of_MXK_Dequeue 0 0 ABS 0
Byte_GetZone@Offset 8 0 COMRAM 1
__pdataBANK0 E2 0 BANK0 1
end_of_initialization 11BDE 0 CODE 0
BT_get_string@get_reading 11 0 COMRAM 1
___awdiv@sign 6 0 COMRAM 1
Byte_SetZone@Offset A 0 COMRAM 1
_BT_load_char 125EA 0 CODE 0
?_GetPortProperties 1 0 COMRAM 1
__end_of_Port_Init 10E32 0 CODE 0
_SPI_MaxSpeed 11D1C 0 CODE 0
__size_of_Mode_Set 0 0 ABS 0
Byte_GetZone@pChunk 4 0 COMRAM 1
_SPBRGH1 F7F 0 ABS 0
_cdc_trf_state 5D 0 COMRAM 1
__end_of_Byte_GetBit 12452 0 CODE 0
Port_SetPin@pInput 10 0 COMRAM 1
Byte_SetZone@pChunk 4 0 COMRAM 1
___wmul@multiplicand 3 0 COMRAM 1
__size_of_SPI_MaxSpeed 0 0 ABS 0
__end_of_Word_SetPair 12240 0 CODE 0
printf@flag 1C 0 COMRAM 1
_Port_Init 10CD4 0 CODE 0
__end_of_GetPortProperties 11826 0 CODE 0
__size_of_Console_IncrementCursor 0 0 ABS 0
_LCD_Reset 122E4 0 CODE 0
Port_SetPin@pValue 13 0 COMRAM 1
Console_MakeField@Column C 0 COMRAM 1
_Reset_Low 1257A 0 CODE 0
__size_of_putch 0 0 ABS 0
__end_of_MXK_Release 1257A 0 CODE 0
__end_of_Byte_GetZone 11A96 0 CODE 0
Console_MakeField@pInput 10 0 COMRAM 1
__end_of_Byte_GetPair 1252E 0 CODE 0
_RCSTAbits FAC 0 ABS 0
_TRISCbits F94 0 ABS 0
_TXSTAbits FAD 0 ABS 0
_TRISFbits F97 0 ABS 0
LCD_Fill@pColour A 0 COMRAM 1
__size_of_Configure_GPIOs 0 0 ABS 0
_Reset_High 12590 0 CODE 0
_Console_Backspace 11F2E 0 CODE 0
GetPortTRIS@pInput 3 0 COMRAM 1
_PORTFbits F85 0 ABS 0
Byte_GetBit@pInput 1 0 COMRAM 1
SPI_Send@pData 3 0 COMRAM 1
strchr@ptr 1 0 COMRAM 1
Byte_SetBit@pInput 1 0 COMRAM 1
_Word_GetPair 12348 0 CODE 0
__size_of_strspn 0 0 ABS 0
_Byte_GetPair 12514 0 CODE 0
__end_of_LCD_Reset 12316 0 CODE 0
_SSP1BUF FC9 0 ABS 0
_SSP2BUF F6F 0 ABS 0
__end_of_MXK_Dequeue 125CC 0 CODE 0
__Hibigdata 0 0 CODE 0
_PortA_Property FFD3 0 MEDIUMCONST 0
__Libigdata 0 0 CODE 0
_PortB_Property FFD1 0 MEDIUMCONST 0
_PortC_Property FFCF 0 MEDIUMCONST 0
_PortD_Property FFCD 0 MEDIUMCONST 0
_PortE_Property FFCB 0 MEDIUMCONST 0
Byte_SetBit@pValue 4 0 COMRAM 1
_PortF_Property FFC9 0 MEDIUMCONST 0
_cdc_notice 11E 0 BANK1 1
_PortG_Property FFC7 0 MEDIUMCONST 0
__end_of_PortA_Property FFD5 0 MEDIUMCONST 0
BT_get_string@i 21 0 COMRAM 1
__size_of_BT_load_string 0 0 ABS 0
_USBOutputBuffer 200 0 BANK2 1
_Word_SetPair 12208 0 CODE 0
Console_Tab@c 10 0 COMRAM 1
_Byte_SetPair 124BC 0 CODE 0
LCD_FillRectangle@pColour A 0 COMRAM 1
__Hifardata 0 0 CODE 0
__Lifardata 0 0 CODE 0
__Hbank0 0 0 ABS 0
__Lbank0 0 0 ABS 0
__size_of_GetPortTRIS 0 0 ABS 0
__size_of_GetPortPORT 0 0 ABS 0
__Hbank1 0 0 ABS 0
__Lbank1 0 0 ABS 0
__Hbank2 0 0 ABS 0
__Lbank2 0 0 ABS 0
_SPI_DCS 123A8 0 CODE 0
__Hbank3 0 0 ABS 0
__Lbank3 0 0 ABS 0
_Font5x7 FD26 0 MEDIUMCONST 0
__Hbank4 0 0 ABS 0
__Lbank4 0 0 ABS 0
__Hbank5 0 0 ABS 0
__size_of_Console_Backspace 0 0 ABS 0
__Lbank5 0 0 ABS 0
__Hpowerup 1400 0 CODE 0
__Lpowerup 1400 0 CODE 0
__Hbank6 0 0 ABS 0
__Lbank6 0 0 ABS 0
_cdc_mem_type 97 0 BANK0 1
__Hbank7 0 0 ABS 0
__size_of_Port_SetQuadType 0 0 ABS 0
__Lbank7 0 0 ABS 0
_Port_SetQuadType 105F2 0 CODE 0
__Hbank8 0 0 ABS 0
_device_dsc FFB1 0 MEDIUMCONST 0
__Lbank8 0 0 ABS 0
__end_of_PortG_Property FFC9 0 MEDIUMCONST 0
__Htext0 0 0 ABS 0
__Ltext0 0 0 ABS 0
__Hbank9 0 0 ABS 0
__Lbank9 0 0 ABS 0
_USBAlternateInterface DF 0 BANK0 1
__Htext1 0 0 ABS 0
__Ltext1 0 0 ABS 0
__ptext0 119A6 0 CODE 0
Port_SetPin@pPin 12 0 COMRAM 1
__Htext2 0 0 ABS 0
__Ltext2 0 0 ABS 0
__ptext1 12402 0 CODE 0
__size_of_Console_MakeField 0 0 ABS 0
_USTATcopy 5F 0 COMRAM 1
__Htext3 0 0 ABS 0
__Ltext3 0 0 ABS 0
__ptext2 122B0 0 CODE 0
__size_of_Console_ClearCursor 0 0 ABS 0
__Htext4 0 0 ABS 0
__Ltext4 0 0 ABS 0
__ptext3 10F7E 0 CODE 0
__Htext5 0 0 ABS 0
__Ltext5 0 0 ABS 0
__ptext4 1158A 0 CODE 0
Port_CheckPairType@pPair 29 0 COMRAM 1
__Htext6 0 0 ABS 0
__Ltext6 0 0 ABS 0
__ptext5 12106 0 CODE 0
__Htext7 0 0 ABS 0
__end_of_Set_Rotation 11616 0 CODE 0
__Ltext7 0 0 ABS 0
__ptext6 11DD8 0 CODE 0
__HbssCOMRAM 0 0 ABS 0
__LbssCOMRAM 0 0 ABS 0
__size_of_Console_ResetCursor 0 0 ABS 0
__size_of_Word_GetPair 0 0 ABS 0
__Htext8 0 0 ABS 0
__Ltext8 0 0 ABS 0
__ptext7 11D1C 0 CODE 0
__pbssCOMRAM 4B 0 COMRAM 1
__Htext9 0 0 ABS 0
__Ltext9 0 0 ABS 0
__ptext8 10000 0 CODE 0
__end_of_BluetoothInit 12348 0 CODE 0
__ptext9 12452 0 CODE 0
__end_of_Byte_SetBit 120BC 0 CODE 0
__Hclrtext 0 0 ABS 0
__Lclrtext 0 0 ABS 0
_pBDTEntryEP0OutCurrent 59 0 COMRAM 1
GetPortPORT@pInput 3 0 COMRAM 1
__size_of_SPI_DCS 0 0 ABS 0
MXK_SwitchTo@pModule 8 0 COMRAM 1
Port_CheckPairType@Props 2E 0 COMRAM 1
__size_of_printf 0 0 ABS 0
LCD_FillRectangle@pSize 10 0 COMRAM 1
Console_Render@lCursor 27 0 COMRAM 1
__end_of_Byte_SetQuad 124BC 0 CODE 0
__end_of_BT_load_string 11E84 0 CODE 0
_OSCTUNEbits F9B 0 ABS 0
printf@c 1D 0 COMRAM 1
__end_of_Byte_SetZone 1169E 0 CODE 0
__end_of_Byte_SetByte 1416 0 CODE 0
__end_of__initialization 11BDE 0 CODE 0
__end_of_Byte_SetPair 124DA 0 CODE 0
MXK_SwitchTo@CUR 7 0 COMRAM 1
memset@c 3 0 COMRAM 1
Console_Init@x 3 0 COMRAM 1
__CFG_CCP2MX$DEFAULT 0 0 ABS 0
printf@f 16 0 COMRAM 1
_USBTicksSinceSuspendEnd 9A 0 BANK0 1
___rparam_used 1 0 ABS 0
?_GetPortPORT 1 0 COMRAM 1
Mode_Set@pMode 1 0 COMRAM 1
strspn@i A 0 COMRAM 1
Byte_GetZone@pInput 1 0 COMRAM 1
_pCDCSrc 80 0 BANK0 1
SPI_Init@pMode 33 0 COMRAM 1
__size_of_memset 0 0 ABS 0
Byte_SetZone@pInput 1 0 COMRAM 1
memset@n 5 0 COMRAM 1
memset@p 7 0 COMRAM 1
LCD_Word_Write@value 6 0 COMRAM 1
__Hidata 0 0 CODE 0
__Lidata 0 0 CODE 0
__Hrdata 0 0 COMRAM 1
__Lrdata 0 0 COMRAM 1
_BT_get_string 11466 0 CODE 0
__end_of_Console_Tab 1158A 0 CODE 0
__size_of_LCD_Reset 0 0 ABS 0
__end_of_Console_SetBackcolour 1260A 0 CODE 0
__Hidloc 0 0 IDLOC 0
_ep_data_in 86 0 BANK0 1
__Lidloc 0 0 IDLOC 0
_SPI_DisableISR 12452 0 CODE 0
__Hstack 0 0 STACK 2
__Lstack 0 0 STACK 2
_pCDCDst 7D 0 BANK0 1
__end_of_device_dsc FFC3 0 MEDIUMCONST 0
__Hparam 0 0 COMRAM 1
__Lparam 0 0 COMRAM 1
__Hspace_0 1FFFE 0 ABS 0
__HcstackCOMRAM 0 0 ABS 0
__Lspace_0 0 0 ABS 0
__LcstackCOMRAM 0 0 ABS 0
__end_of_Port_Set 105F2 0 CODE 0
__pcstackCOMRAM 1 0 COMRAM 1
__end_of_PortB_Property FFD3 0 MEDIUMCONST 0
__end_of_strtok 11282 0 CODE 0
?_printf 16 0 COMRAM 1
_USB_CD_Ptr FD24 0 MEDIUMCONST 0
__Hspace_1 56C 0 ABS 0
__Lspace_1 0 0 ABS 0
_lBuffer 440 0 BIGRAM 1
Port_Set@TypeRequired 23 0 COMRAM 1
__Hsmallconst 0 0 SMALLCONST 0
__Lsmallconst 0 0 SMALLCONST 0
delay_ms@ms 1 0 COMRAM 1
__end_of_Console_IncrementCursor 11F2E 0 CODE 0
__end_of_Console_FormFeed 11B7A 0 CODE 0
Port_SetPinType@pPin 29 0 COMRAM 1
_lcdInit 12402 0 CODE 0
__end_of_MASKS FD1E 0 MEDIUMCONST 0
_inPipes 4B 0 COMRAM 1
?_strchr 1 0 COMRAM 1
_USB_SD_Ptr FD1E 0 MEDIUMCONST 0
__Hspace_2 0 0 ABS 0
__Lspace_2 0 0 ABS 0
_cdc_rx_len 99 0 BANK0 1
?_strtok C 0 COMRAM 1
_cdc_tx_len 98 0 BANK0 1
__Hnvbit 0 0 COMRAM 1
__Lnvbit 0 0 COMRAM 1
?___wmul 1 0 COMRAM 1
__size_of_delay_ms 0 0 ABS 0
__end_of_Console_Init 11CB6 0 CODE 0
__size_of_delay_us 0 0 ABS 0
__Hcinit 0 0 ABS 0
Set_Rotation@rotation 7 0 COMRAM 1
__Lcinit 0 0 ABS 0
SPI_Init@pClock 2E 0 COMRAM 1
_UIEbits F5C 0 ABS 0
_strcspn 11FD2 0 CODE 0
Byte_GetZone@pChunkSize 5 0 COMRAM 1
Console_Render@x 2B 0 COMRAM 1
_UIRbits F62 0 ABS 0
__pcinit 11B7A 0 CODE 0
___awdiv 1169E 0 CODE 0
?_strspn 5 0 COMRAM 1
__ramtop 1000 0 RAM 0
__mediumconst FC52 0 MEDIUMCONST 0
__end_of_Port_SetPin 1132C 0 CODE 0
__size_of_main 0 0 ABS 0
Byte_SetZone@pChunkSize 5 0 COMRAM 1
_gCursor EE 0 BANK0 1
__size_of_Console_PrintChar 0 0 ABS 0
__Hconst 0 0 CONST 0
__Lconst 0 0 CONST 0
__size_of_LCD_FillRectangle 0 0 ABS 0
strcspn@s1 5 0 COMRAM 1
_BluetoothInit 12316 0 CODE 0
_USB1msTickCount 73 0 BANK0 1
Port_SetPinType@pType 2A 0 COMRAM 1
__end_of_SPI_Init 10360 0 CODE 0
LCD_DrawField@i 23 0 COMRAM 1
strcspn@s2 7 0 COMRAM 1
Port_SetPinType@Props 2C 0 COMRAM 1
_LCD_Word_Write 125A6 0 CODE 0
_CtrlTrfData 438 0 ABS 1
SPI_Init@pChannel 32 0 COMRAM 1
__HidataBANK0 0 0 ABS 0
__LidataBANK0 0 0 ABS 0
_shortPacketStatus A6 0 BANK0 1
__pidataBANK0 12548 0 CODE 0
__end_of_Port_SetType 1099C 0 CODE 0
__size_of_strchr 0 0 ABS 0
Byte_SetByte@pInput 1 0 COMRAM 1
_MXK_SwitchTo 12278 0 CODE 0
__size_of_LCD_Init 0 0 ABS 0
main@buffer 49 0 COMRAM 1
BT_get_string@filter 25 0 COMRAM 1
__end_of_Mode_Set 125EA 0 CODE 0
__end_of_Port_CheckQuadType 12106 0 CODE 0
Port_SetType@pInput 3B 0 COMRAM 1
__size_of_Console_Render 0 0 ABS 0
Set_Addr_Window@xe 7 0 COMRAM 1
Set_Addr_Window@ye 8 0 COMRAM 1
Set_Addr_Window@xs 9 0 COMRAM 1
Set_Addr_Window@ys 6 0 COMRAM 1
__end_of_Port_CheckPairType 11DD8 0 CODE 0
__HbssBANK0 0 0 ABS 0
__LbssBANK0 0 0 ABS 0
_SSP1CON1 FC6 0 ABS 0
_SSP2CON1 F6C 0 ABS 0
__Hbank10 0 0 ABS 0
__pbssBANK0 60 0 BANK0 1
__Lbank10 0 0 ABS 0
Set_Rotation@m 6 0 COMRAM 1
Console_Init@y 4 0 COMRAM 1
__size_of_BT_get_char 0 0 ABS 0
__end_of_Reset_Low 12590 0 CODE 0
__Hbank11 0 0 ABS 0
__Lbank11 0 0 ABS 0
__end_of_Port_CheckPortType 12208 0 CODE 0
delay_us@us 1 0 COMRAM 1
LCD_Write@value 5 0 COMRAM 1
__CFG_FCMEN$OFF 0 0 ABS 0
__Hbank12 0 0 ABS 0
__Lbank12 0 0 ABS 0
_USBStatusStageEnabledFlag1 9E 0 BANK0 1
__end_of_SPI_Send 11C4E 0 CODE 0
__Hbank13 0 0 ABS 0
__Lbank13 0 0 ABS 0
__HbssBANK1 0 0 ABS 0
__LbssBANK1 0 0 ABS 0
__HbssBIGRAMl 0 0 ABS 0
__end_of_strspn 11FD2 0 CODE 0
__LbssBIGRAMl 0 0 ABS 0
__Hbank14 0 0 ABS 0
__pbssBANK1 100 0 BANK1 1
__Lbank14 0 0 ABS 0
__end_of_Console_Backspace 11F82 0 CODE 0
__Htext10 0 0 ABS 0
__pbssBIGRAMl 440 0 BIGRAM 1
__Ltext10 0 0 ABS 0
__end_of_Port_SetQuadType 107E4 0 CODE 0
__Htext20 0 0 ABS 0
__end_of_MXK_SwitchTo 122B0 0 CODE 0
__Ltext20 0 0 ABS 0
__ptext10 123A8 0 CODE 0
__Hbank15 0 0 ABS 0
__Lbank15 0 0 ABS 0
__Htext30 0 0 ABS 0
__Htext11 0 0 ABS 0
__Ltext30 0 0 ABS 0
__Ltext11 0 0 ABS 0
__CFG_PLLDIV$3 0 0 ABS 0
__ptext20 107E4 0 CODE 0
__size_of_LCD_Word_Write 0 0 ABS 0
__Htext40 0 0 ABS 0
__Htext21 0 0 ABS 0
MXK_BlockSwitchTo@CUR 7 0 COMRAM 1
__end_of_Console_MakeField 113CC 0 CODE 0
__Ltext40 0 0 ABS 0
__Ltext21 0 0 ABS 0
Port_SetPinType@pInput 27 0 COMRAM 1
__ptext11 122E4 0 CODE 0
__ptext30 10360 0 CODE 0
Port_SetPinType@Output 2B 0 COMRAM 1
__size_of_Byte_GetBit 0 0 ABS 0
_USBStatusStageEnabledFlag2 9D 0 BANK0 1
__Htext50 0 0 ABS 0
__Htext31 0 0 ABS 0
__Htext12 0 0 ABS 0
__Ltext50 0 0 ABS 0
__Ltext31 0 0 ABS 0
__Ltext12 0 0 ABS 0
__ptext21 121CE 0 CODE 0
__ptext40 12316 0 CODE 0
__Htext60 0 0 ABS 0
__Htext41 0 0 ABS 0
__Htext22 0 0 ABS 0
__Ltext60 0 0 ABS 0
__Ltext41 0 0 ABS 0
__Ltext22 0 0 ABS 0
__ptext12 1257A 0 CODE 0
__ptext31 12348 0 CODE 0
__ptext50 124F8 0 CODE 0
__Htext70 0 0 ABS 0
__Htext51 0 0 ABS 0
__Htext32 0 0 ABS 0
__Htext13 0 0 ABS 0
__size_of_Word_SetPair 0 0 ABS 0
__Ltext70 0 0 ABS 0
__Ltext51 0 0 ABS 0
__Ltext32 0 0 ABS 0
__Ltext13 0 0 ABS 0
__HbssBANK2 0 0 ABS 0
__ptext22 120BC 0 CODE 0
__ptext41 12240 0 CODE 0
__ptext60 11A96 0 CODE 0
__LbssBANK2 0 0 ABS 0
_RCSTA1bits FAC 0 ABS 0
__Htext61 0 0 ABS 0
__Htext42 0 0 ABS 0
__Htext23 0 0 ABS 0
__Ltext61 0 0 ABS 0
__Ltext42 0 0 ABS 0
__Ltext23 0 0 ABS 0
__ptext13 12590 0 CODE 0
__ptext32 12514 0 CODE 0
__ptext51 11F2E 0 CODE 0
__ptext70 125EA 0 CODE 0
__pbssBANK2 200 0 BANK2 1
_TXSTA1bits FAD 0 ABS 0
__Htext71 0 0 ABS 0
__Htext52 0 0 ABS 0
__Htext33 0 0 ABS 0
__Htext14 0 0 ABS 0
_Console_Init 11C4E 0 CODE 0
___extmem_base 20000 0 ABS 0
__Ltext71 0 0 ABS 0
__Ltext52 0 0 ABS 0
__Ltext33 0 0 ABS 0
__Ltext14 0 0 ABS 0
__ptext23 11D7E 0 CODE 0
__ptext42 113CC 0 CODE 0
__ptext61 12478 0 CODE 0
__size_of___awdiv 0 0 ABS 0
__Htext62 0 0 ABS 0
__Htext43 0 0 ABS 0
__Htext24 0 0 ABS 0
__Ltext62 0 0 ABS 0
__Ltext43 0 0 ABS 0
__Ltext24 0 0 ABS 0
_Port_CheckPortType 121CE 0 CODE 0
__ptext14 11C4E 0 CODE 0
__ptext33 11A20 0 CODE 0
__ptext52 12378 0 CODE 0
__ptext71 11466 0 CODE 0
_recieveFunction 77 0 BANK0 1
__Htext72 0 0 ABS 0
__Htext53 0 0 ABS 0
__Htext34 0 0 ABS 0
__Htext15 0 0 ABS 0
__Ltext72 0 0 ABS 0
__Ltext53 0 0 ABS 0
__Ltext34 0 0 ABS 0
__Ltext15 0 0 ABS 0
__ptext24 10B4E 0 CODE 0
__ptext43 125F6 0 CODE 0
__ptext62 118A8 0 CODE 0
__Htext63 0 0 ABS 0
__Htext44 0 0 ABS 0
__Htext25 0 0 ABS 0
__Ltext63 0 0 ABS 0
__Ltext44 0 0 ABS 0
__Ltext25 0 0 ABS 0
__ptext15 110B8 0 CODE 0
__ptext34 1408 0 CODE 0
__ptext53 12278 0 CODE 0
_MXK_BlockSwitchTo 122B0 0 CODE 0
__ptext72 111CE 0 CODE 0
___inthi_sp 0 0 STACK 2
Clear_String@string 9 0 COMRAM 1
__Htext73 0 0 ABS 0
__Htext54 0 0 ABS 0
__Htext35 0 0 ABS 0
__Htext16 0 0 ABS 0
__Ltext73 0 0 ABS 0
__Ltext54 0 0 ABS 0
__Ltext35 0 0 ABS 0
__Ltext16 0 0 ABS 0
__ptext25 12208 0 CODE 0
__ptext44 10E32 0 CODE 0
__ptext63 125A6 0 CODE 0
_cdc_data_rx 128 0 BANK1 1
__Htext64 0 0 ABS 0
__Htext45 0 0 ABS 0
__Htext26 0 0 ABS 0
Port_CheckPortType@pDrive 39 0 COMRAM 1
__Ltext64 0 0 ABS 0
__Ltext45 0 0 ABS 0
__Ltext26 0 0 ABS 0
__ptext16 105F2 0 CODE 0
__ptext35 11722 0 CODE 0
__ptext54 1218E 0 CODE 0
__ptext73 11F82 0 CODE 0
__Htext74 0 0 ABS 0
__Htext55 0 0 ABS 0
__Htext36 0 0 ABS 0
__Htext17 0 0 ABS 0
__Ltext74 0 0 ABS 0
__Ltext55 0 0 ABS 0
__Ltext36 0 0 ABS 0
__Ltext17 0 0 ABS 0
__ptext26 124BC 0 CODE 0
__ptext45 114FC 0 CODE 0
__ptext64 1252E 0 CODE 0
__Htext65 0 0 ABS 0
__Htext46 0 0 ABS 0
__Htext27 0 0 ABS 0
BT_load_string@string 2 0 COMRAM 1
__Ltext65 0 0 ABS 0
__Ltext46 0 0 ABS 0
__Ltext27 0 0 ABS 0
__end_of_printf 11466 0 CODE 0
__ptext17 1249E 0 CODE 0
__ptext36 117A4 0 CODE 0
__ptext55 12562 0 CODE 0
__ptext74 11FD2 0 CODE 0
__Htext75 0 0 ABS 0
__Htext56 0 0 ABS 0
__Htext37 0 0 ABS 0
__Htext18 0 0 ABS 0
__Ltext75 0 0 ABS 0
__Ltext56 0 0 ABS 0
__Ltext37 0 0 ABS 0
__Ltext18 0 0 ABS 0
__ptext27 11616 0 CODE 0
__ptext46 1169E 0 CODE 0
__ptext65 11BE4 0 CODE 0
__Htext66 0 0 ABS 0
__Htext47 0 0 ABS 0
__Htext28 0 0 ABS 0
__Ltext66 0 0 ABS 0
__Ltext47 0 0 ABS 0
__Ltext28 0 0 ABS 0
__ptext18 11282 0 CODE 0
__ptext37 11826 0 CODE 0
__ptext56 125BC 0 CODE 0
__ptext75 1214A 0 CODE 0
__Htext76 0 0 ABS 0
__Htext57 0 0 ABS 0
__Htext38 0 0 ABS 0
__Htext19 0 0 ABS 0
__Ltext76 0 0 ABS 0
__Ltext57 0 0 ABS 0
__Ltext38 0 0 ABS 0
__Ltext19 0 0 ABS 0
__ptext28 11CB6 0 CODE 0
__ptext47 11EDA 0 CODE 0
__ptext66 125DC 0 CODE 0
__CFG_WDTEN$OFF 0 0 ABS 0
__end_of_PortC_Property FFD1 0 MEDIUMCONST 0
__Htext67 0 0 ABS 0
__Htext48 0 0 ABS 0
__Htext29 0 0 ABS 0
__Ltext67 0 0 ABS 0
__Ltext48 0 0 ABS 0
__Ltext29 0 0 ABS 0
__ptext19 10CD4 0 CODE 0
__ptext38 124DA 0 CODE 0
__ptext57 12600 0 CODE 0
__ptext76 11E84 0 CODE 0
___intlo_sp 0 0 STACK 2
__Htext77 0 0 ABS 0
__Htext58 0 0 ABS 0
__Htext39 0 0 ABS 0
__Ltext77 0 0 ABS 0
__Ltext58 0 0 ABS 0
__Ltext39 0 0 ABS 0
__ptext29 12070 0 CODE 0
__ptext48 1192A 0 CODE 0
__ptext67 1132C 0 CODE 0
Byte_SetQuad@pValue F 0 COMRAM 1
__Htext68 0 0 ABS 0
__Htext49 0 0 ABS 0
__Ltext68 0 0 ABS 0
__Ltext49 0 0 ABS 0
__ptext39 123D6 0 CODE 0
__ptext58 1099C 0 CODE 0
__ptext77 125CC 0 CODE 0
__Htext59 0 0 ABS 0
__Ltext59 0 0 ABS 0
__ptext49 11B0C 0 CODE 0
__ptext68 1242A 0 CODE 0
lcdDisplay@sentences 2D 0 COMRAM 1
_INTCONbits FF2 0 ABS 0
__Htext69 0 0 ABS 0
__Ltext69 0 0 ABS 0
_ep_data_out 83 0 BANK0 1
__ptext59 12022 0 CODE 0
__end_ofPortProperty_Valid@F6830 FD15 0 MEDIUMCONST 0
_gBackcolour 8B 0 BANK0 1
_controlTransferState A5 0 BANK0 1
__ptext69 11E2E 0 CODE 0
_Console_FormFeed 11B0C 0 CODE 0
_gForecolour F2 0 BANK0 1
_USBActiveConfiguration E1 0 BANK0 1
Port_Init@pPort 43 0 COMRAM 1
_CDCDataOutHandle 91 0 BANK0 1
PortProperty_Valid@pPinDrive 12 0 COMRAM 1
Word_GetPair@pInput D 0 COMRAM 1
Byte_GetPair@pInput A 0 COMRAM 1
___awdiv@divisor 3 0 COMRAM 1
_cdc_data_tx 168 0 BANK1 1
MXK_BlockSwitchTo@pModule 8 0 COMRAM 1
_pBDTEntryIn 51 0 COMRAM 1
_BaudRateGen 6F 0 BANK0 1
__size_of_Byte_GetZone 0 0 ABS 0
Word_SetPair@pInput 10 0 COMRAM 1
Byte_SetPair@pInput C 0 COMRAM 1
__size_of_Byte_GetPair 0 0 ABS 0
Console_MakeField@x 11 0 COMRAM 1
Console_MakeField@y 12 0 COMRAM 1
__size_of_SPI_Init 0 0 ABS 0
__end_of_lcdInit 1242A 0 CODE 0
Byte_SetQuad@pQuad E 0 COMRAM 1
__end_of_delay_ms 11EDA 0 CODE 0
LCD_DrawField@xmax 21 0 COMRAM 1
__CFG_FOSC$HSPLL 0 0 ABS 0
__size_of_MXK_BlockSwitchTo 0 0 ABS 0
__size_of_Reset_Low 0 0 ABS 0
_PortProperty_Valid 11CB6 0 CODE 0
__Hjflash_buffer 1F800 0 CODE 0
__Ljflash_buffer 1F800 0 CODE 0
__end_of_Console_PrintChar 10F7E 0 CODE 0
LCD_FillRectangle@pPoint C 0 COMRAM 1
_USBDeferStatusStagePacket 9F 0 BANK0 1
__smallconst 0 0 SMALLCONST 0
BT_get_string@i_14210 27 0 COMRAM 1
_LCD_FillRectangle 12022 0 CODE 0
_USBStatusStageTimeoutCounter A0 0 BANK0 1
Port_CheckQuadType@pDrive 33 0 COMRAM 1
Console_PrintChar@pInput 14 0 COMRAM 1
__size_of___wmul 0 0 ABS 0
memset@p1 1 0 COMRAM 1
__Hreset_vec 1400 0 CODE 0
__Lreset_vec 1400 0 CODE 0
__size_of_Reset_High 0 0 ABS 0
strtok@s1 C 0 COMRAM 1
_lcdDisplay 12240 0 CODE 0
strspn@s1 5 0 COMRAM 1
__end_of_Console_Render 10B4E 0 CODE 0
strtok@s2 E 0 COMRAM 1
strspn@s2 7 0 COMRAM 1
__end_of_USB_SD_Ptr FD24 0 MEDIUMCONST 0
Port_CheckPortType@pInput 37 0 COMRAM 1
__end_of_MXK_Init 111CE 0 CODE 0
_control_signal_bitmap 96 0 BANK0 1
__accesstop 60 0 ABS 0
__Hintcode_body 0 0 ABS 0
__Lintcode_body 0 0 ABS 0
Port_CheckPortType@Output 3A 0 COMRAM 1
Port_SetQuadType@pQuad 39 0 COMRAM 1
SPI_Send9@dat 8D 0 BANK0 1
__end_of_SPI_DCS 123D6 0 CODE 0
intlevel0 0 0 CODE 0
_configDescriptor1 FF06 0 MEDIUMCONST 0
Port_SetQuadType@pType 3A 0 COMRAM 1
_SSP1STAT FC7 0 ABS 0
intlevel1 0 0 CODE 0
_SSP2STAT F6D 0 ABS 0
__end_of_LCD_Write 12548 0 CODE 0
_Set_Rotation 1158A 0 CODE 0
intlevel2 0 0 CODE 0
_Port_CheckQuadType 120BC 0 CODE 0
intlevel3 0 0 CODE 0
_SSP1CON1bits FC6 0 ABS 0
_SSP2CON1bits F6C 0 ABS 0
Console_Render@temp 26 0 COMRAM 1
_BAUDCON1bits F7E 0 ABS 0
Console_Tab@t E 0 COMRAM 1
Port_CheckQuadType@pInput 30 0 COMRAM 1
__end_of_LCD_Fill 1214A 0 CODE 0
?_Console_MakeField 6 0 COMRAM 1
__size_of_BT_get_string 0 0 ABS 0
Port_CheckQuadType@Output 36 0 COMRAM 1
_Byte_GetZone 11A20 0 CODE 0
__end_of___wmul 1249E 0 CODE 0
PortProperty_Valid@Errors 16 0 COMRAM 1
start_initialization 11B7A 0 CODE 0
Console_MakeField@Fill 240 0 BANK2 1
__end_of_sd000 FFC7 0 MEDIUMCONST 0
_GetPortProperties 117A4 0 CODE 0
___awdiv@quotient 7 0 COMRAM 1
PortProperty_Valid@pInput 10 0 COMRAM 1
LCD_Write@mode 4 0 COMRAM 1
__end_of_PortProperty_Valid 11D1C 0 CODE 0
_BothEP0OutUOWNsSet A1 0 BANK0 1
_Byte_SetZone 11616 0 CODE 0
__end_of_PortD_Property FFCF 0 MEDIUMCONST 0
_Console_PrintChar 10E32 0 CODE 0
Console_Tab@i F 0 COMRAM 1
SPI_DisableISR@pInput 1 0 COMRAM 1
__CFG_IESO$OFF 0 0 ABS 0
Port_Set@Type 27 0 COMRAM 1
__size_of_MXK_SwitchTo 0 0 ABS 0
_Console_MakeField 1132C 0 CODE 0
__end_of_Reset_High 125A6 0 CODE 0
__size_of_LCD_DrawField 0 0 ABS 0
Byte_GetZone@pMax 3 0 COMRAM 1
_MXK_Release 12562 0 CODE 0
LCD_DrawField@count 1F 0 COMRAM 1
Byte_SetZone@pMax 3 0 COMRAM 1
__initialization 11B7A 0 CODE 0
__size_of_Set_Addr_Window 0 0 ABS 0
BT_load_char@byte 1 0 COMRAM 1
__size_of_lcdInit 0 0 ABS 0
__size_of_Byte_SetBit 0 0 ABS 0
SPI_DCS@pInput 1 0 COMRAM 1
PortProperty_Valid@pPin 13 0 COMRAM 1
PortProperty_Valid@F6830 FD05 0 MEDIUMCONST 0
PortProperty_Valid@Pair 26 0 COMRAM 1
__activetblptr 3 0 ABS 0
__size_of_BT_load_char 0 0 ABS 0
___wmul@product 5 0 COMRAM 1
Port_Set@TypeActual 25 0 COMRAM 1
_USBDeviceState 5E 0 COMRAM 1
_Console_ClearCursor 12378 0 CODE 0
Port_SetType@pType 3D 0 COMRAM 1
_Port_SetPin 11282 0 CODE 0
_LCD_DrawField 11A96 0 CODE 0
___awdiv@dividend 1 0 COMRAM 1
%segments
reset_vec 1400 1403 CODE 1400 0
mediumconst FC52 FFFF MEDIUMCONST FC52 0
config 1FFF8 1FFFD CONFIG 1FFF8 0
cstackCOMRAM 1 5F COMRAM 1 1
bssBANK0 60 FA BANK0 60 1
bssBANK1 100 1E2 BANK1 100 1
bssBANK2 200 2C5 BANK2 200 1
bssBIGRAMl 440 56B BIGRAM 440 1
text8 10000 12560 CODE 10000 0
text55 12562 12609 CODE 12562 0
text34 1408 1415 CODE 1408 0
%locals
dist/BOOTLOADER/production/MX1_ASSIGNMENT2_A18_NAME_SIDxxxx.X.production.obj
/Applications/microchip/xc8/v1.45/include/pic18f67j50.h
/tmp/xcpBmvktZ
9451 11B7A 0 CODE 0
9453 11B7A 0 CODE 0
9456 11B7A 0 CODE 0
9731 11B7A 0 CODE 0
9732 11B7C 0 CODE 0
9733 11B7E 0 CODE 0
9734 11B80 0 CODE 0
9735 11B82 0 CODE 0
9736 11B84 0 CODE 0
9737 11B86 0 CODE 0
9738 11B8A 0 CODE 0
9739 11B8E 0 CODE 0
9740 11B8E 0 CODE 0
9741 11B90 0 CODE 0
9742 11B94 0 CODE 0
9743 11B96 0 CODE 0
9744 11B98 0 CODE 0
9748 11B9A 0 CODE 0
9749 11B9E 0 CODE 0
9750 11BA2 0 CODE 0
9751 11BA2 0 CODE 0
9752 11BA4 0 CODE 0
9753 11BA6 0 CODE 0
9754 11BA8 0 CODE 0
9755 11BAA 0 CODE 0
9756 11BAC 0 CODE 0
9759 11BAE 0 CODE 0
9760 11BB2 0 CODE 0
9761 11BB4 0 CODE 0
9762 11BB4 0 CODE 0
9763 11BB6 0 CODE 0
9764 11BB8 0 CODE 0
9767 11BBA 0 CODE 0
9768 11BBE 0 CODE 0
9769 11BC0 0 CODE 0
9770 11BC0 0 CODE 0
9771 11BC2 0 CODE 0
9772 11BC4 0 CODE 0
9775 11BC6 0 CODE 0
9776 11BCA 0 CODE 0
9777 11BCC 0 CODE 0
9778 11BCC 0 CODE 0
9779 11BCE 0 CODE 0
9780 11BD0 0 CODE 0
9783 11BD2 0 CODE 0
9784 11BD6 0 CODE 0
9785 11BD8 0 CODE 0
9786 11BD8 0 CODE 0
9787 11BDA 0 CODE 0
9788 11BDC 0 CODE 0
9794 11BDE 0 CODE 0
9796 11BDE 0 CODE 0
9797 11BE0 0 CODE 0
main.c
266 119A6 0 CODE 0
269 119A6 0 CODE 0
270 119AE 0 CODE 0
271 119B2 0 CODE 0
272 119B6 0 CODE 0
273 119BA 0 CODE 0
274 119C6 0 CODE 0
275 119D2 0 CODE 0
277 119D2 0 CODE 0
278 119E2 0 CODE 0
279 119EE 0 CODE 0
280 119FA 0 CODE 0
281 11A06 0 CODE 0
282 11A12 0 CODE 0
275 11A1E 0 CODE 0
main.c
159 12402 0 CODE 0
160 12402 0 CODE 0
162 1240E 0 CODE 0
163 12412 0 CODE 0
164 12416 0 CODE 0
168 1241A 0 CODE 0
169 1241A 0 CODE 0
170 12424 0 CODE 0
Library/MXK.c
46 122B0 0 CODE 0
49 122B2 0 CODE 0
51 122B8 0 CODE 0
52 122C0 0 CODE 0
54 122C4 0 CODE 0
56 122CC 0 CODE 0
57 122D0 0 CODE 0
60 122D4 0 CODE 0
61 122E0 0 CODE 0
62 122E0 0 CODE 0
Library/LCD.c
167 10F7E 0 CODE 0
170 10F7E 0 CODE 0
172 10F82 0 CODE 0
174 10F96 0 CODE 0
175 10FC8 0 CODE 0
176 10FF6 0 CODE 0
178 10FF6 0 CODE 0
179 11054 0 CODE 0
172 11078 0 CODE 0
182 11082 0 CODE 0
183 1108E 0 CODE 0
184 11098 0 CODE 0
186 1109E 0 CODE 0
187 110AA 0 CODE 0
188 110B6 0 CODE 0
Library/LCD.c
243 1158A 0 CODE 0
245 1158C 0 CODE 0
247 11590 0 CODE 0
248 1159A 0 CODE 0
250 115A0 0 CODE 0
252 115A2 0 CODE 0
254 115A2 0 CODE 0
255 115AC 0 CODE 0
256 115B2 0 CODE 0
257 115B6 0 CODE 0
259 115B8 0 CODE 0
261 115B8 0 CODE 0
262 115C2 0 CODE 0
263 115C8 0 CODE 0
264 115CC 0 CODE 0
266 115CE 0 CODE 0
268 115CE 0 CODE 0
269 115D8 0 CODE 0
270 115DE 0 CODE 0
271 115E2 0 CODE 0
273 115E4 0 CODE 0
275 115E4 0 CODE 0
276 115EE 0 CODE 0
277 115F4 0 CODE 0
280 115F8 0 CODE 0
250 115FA 0 CODE 0
Library/LCD.c
282 12106 0 CODE 0
291 12106 0 CODE 0
292 1210A 0 CODE 0
293 1210E 0 CODE 0
294 12122 0 CODE 0
295 1212C 0 CODE 0
296 12136 0 CODE 0
295 12142 0 CODE 0
294 12146 0 CODE 0
Library/LCD.c
45 11DD8 0 CODE 0
48 11DD8 0 CODE 0
51 11DEC 0 CODE 0
54 11E00 0 CODE 0
62 11E04 0 CODE 0
63 11E20 0 CODE 0
65 11E2C 0 CODE 0
Library/SPI.c
198 11D1C 0 CODE 0
202 11D1C 0 CODE 0
205 11D3C 0 CODE 0
206 11D5C 0 CODE 0
208 11D7C 0 CODE 0
Library/SPI.c
10 10000 0 CODE 0
14 10000 0 CODE 0
16 10002 0 CODE 0
17 10002 0 CODE 0
19 1000A 0 CODE 0
20 1000A 0 CODE 0
22 10012 0 CODE 0
14 10014 0 CODE 0
22 10022 0 CODE 0
24 10022 0 CODE 0
33 10032 0 CODE 0
35 10034 0 CODE 0
37 10034 0 CODE 0
38 10048 0 CODE 0
39 1005C 0 CODE 0
40 10070 0 CODE 0
42 10084 0 CODE 0
43 10098 0 CODE 0
44 100AC 0 CODE 0
51 100BC 0 CODE 0
53 100BC 0 CODE 0
54 100D0 0 CODE 0
55 100E4 0 CODE 0
56 100F8 0 CODE 0
58 1010C 0 CODE 0
59 10120 0 CODE 0
60 10134 0 CODE 0
66 10148 0 CODE 0
33 1014A 0 CODE 0
69 1015A 0 CODE 0
72 1015A 0 CODE 0
75 1017A 0 CODE 0
77 1017C 0 CODE 0
78 1017C 0 CODE 0
79 1019C 0 CODE 0
80 101BC 0 CODE 0
81 101BE 0 CODE 0
82 101BE 0 CODE 0
83 101DE 0 CODE 0
84 101FE 0 CODE 0
85 10200 0 CODE 0
86 10200 0 CODE 0
87 10220 0 CODE 0
88 10240 0 CODE 0
89 10242 0 CODE 0
90 10242 0 CODE 0
91 10262 0 CODE 0
92 10282 0 CODE 0
75 10284 0 CODE 0
95 102A0 0 CODE 0
98 102A0 0 CODE 0
99 102C0 0 CODE 0
109 102E0 0 CODE 0
113 102EC 0 CODE 0
115 102EE 0 CODE 0
116 102F2 0 CODE 0
113 102F6 0 CODE 0
118 10306 0 CODE 0
121 10306 0 CODE 0
123 10312 0 CODE 0
126 1031E 0 CODE 0
127 1033E 0 CODE 0
129 1035E 0 CODE 0
Library/SPI.c
178 12452 0 CODE 0
180 12452 0 CODE 0
182 12454 0 CODE 0
183 12458 0 CODE 0
185 1245A 0 CODE 0
180 1245C 0 CODE 0
Library/SPI.c
216 123A8 0 CODE 0
218 123A8 0 CODE 0
219 123BA 0 CODE 0
220 123C8 0 CODE 0
221 123C8 0 CODE 0
Library/LCD.c
94 122E4 0 CODE 0
96 122E4 0 CODE 0
97 122E8 0 CODE 0
98 122F4 0 CODE 0
99 122F8 0 CODE 0
100 12304 0 CODE 0
101 12308 0 CODE 0
102 12314 0 CODE 0
Library/LCD.c
31 1257A 0 CODE 0
33 1257A 0 CODE 0
34 1258E 0 CODE 0
Library/LCD.c
35 12590 0 CODE 0
37 12590 0 CODE 0
38 125A4 0 CODE 0
Library/Console.c
157 11C4E 0 CODE 0
160 11C4E 0 CODE 0
161 11C52 0 CODE 0
164 11C56 0 CODE 0
165 11C62 0 CODE 0
166 11C62 0 CODE 0
167 11C6E 0 CODE 0
168 11C6E 0 CODE 0
169 11C96 0 CODE 0
166 11CAE 0 CODE 0
164 11CB2 0 CODE 0
Library/MXK.c
6 110B8 0 CODE 0
8 110B8 0 CODE 0
9 110BE 0 CODE 0
11 110CA 0 CODE 0
12 110DA 0 CODE 0
13 110EA 0 CODE 0
14 110FA 0 CODE 0
15 1110A 0 CODE 0
16 1111A 0 CODE 0
17 1112A 0 CODE 0
19 1113A 0 CODE 0
20 1114E 0 CODE 0
21 11162 0 CODE 0
22 11176 0 CODE 0
24 11186 0 CODE 0
25 1119A 0 CODE 0
29 111AE 0 CODE 0
30 111B2 0 CODE 0
31 111B6 0 CODE 0
33 111BA 0 CODE 0
34 111BC 0 CODE 0
37 111BE 0 CODE 0
39 111CA 0 CODE 0
40 111CC 0 CODE 0
Library/Port.c
399 105F2 0 CODE 0
401 105F2 0 CODE 0
403 105F6 0 CODE 0
405 105F8 0 CODE 0
409 105F8 0 CODE 0
412 10618 0 CODE 0
415 10638 0 CODE 0
416 1063A 0 CODE 0
417 1063A 0 CODE 0
420 10656 0 CODE 0
423 10676 0 CODE 0
424 10696 0 CODE 0
427 10698 0 CODE 0
428 10698 0 CODE 0
431 106B4 0 CODE 0
434 106D4 0 CODE 0
435 106F4 0 CODE 0
438 106F6 0 CODE 0
439 106F6 0 CODE 0
442 10712 0 CODE 0
445 10732 0 CODE 0
446 10752 0 CODE 0
403 10754 0 CODE 0
451 1076E 0 CODE 0
454 1076E 0 CODE 0
455 1078A 0 CODE 0
456 107A6 0 CODE 0
457 107C4 0 CODE 0
Library/Types.c
101 1249E 0 CODE 0
103 1249E 0 CODE 0
104 124BA 0 CODE 0
Library/Port.c
247 11282 0 CODE 0
249 11282 0 CODE 0
250 11298 0 CODE 0
254 1129A 0 CODE 0
256 1129A 0 CODE 0
257 1129E 0 CODE 0
258 112BE 0 CODE 0
259 112C0 0 CODE 0
261 112C0 0 CODE 0
262 112C4 0 CODE 0
263 112C8 0 CODE 0
264 112E8 0 CODE 0
265 112EA 0 CODE 0
266 112EA 0 CODE 0
267 112EE 0 CODE 0
269 1130E 0 CODE 0
250 11310 0 CODE 0
Library/Port.c
150 10CD4 0 CODE 0
153 10CD4 0 CODE 0
154 10CEA 0 CODE 0
155 10D04 0 CODE 0
156 10D1E 0 CODE 0
159 10D38 0 CODE 0
160 10D58 0 CODE 0
163 10D78 0 CODE 0
167 10D88 0 CODE 0
171 10D94 0 CODE 0
172 10D94 0 CODE 0
173 10DA8 0 CODE 0
174 10DAA 0 CODE 0
175 10DAA 0 CODE 0
176 10DBE 0 CODE 0
177 10DC0 0 CODE 0
178 10DC0 0 CODE 0
179 10DD4 0 CODE 0
180 10DD6 0 CODE 0
181 10DD6 0 CODE 0
183 10DEA 0 CODE 0
169 10DEC 0 CODE 0
183 10E1C 0 CODE 0
167 10E1C 0 CODE 0
185 10E20 0 CODE 0
186 10E30 0 CODE 0
Library/Port.c
513 107E4 0 CODE 0
515 107E4 0 CODE 0
517 107E8 0 CODE 0
519 107EA 0 CODE 0
522 107EA 0 CODE 0
525 1080A 0 CODE 0
526 1080A 0 CODE 0
529 10822 0 CODE 0
532 10842 0 CODE 0
536 10848 0 CODE 0
537 10848 0 CODE 0
540 10860 0 CODE 0
543 10880 0 CODE 0
547 10886 0 CODE 0
548 10886 0 CODE 0
551 1089E 0 CODE 0
552 108BE 0 CODE 0
517 108C0 0 CODE 0
557 108DA 0 CODE 0
560 108DA 0 CODE 0
561 108F2 0 CODE 0
562 1090A 0 CODE 0
563 10922 0 CODE 0
564 1093A 0 CODE 0
565 10952 0 CODE 0
566 1096A 0 CODE 0
567 10982 0 CODE 0
Library/Port.c
138 121CE 0 CODE 0
140 121CE 0 CODE 0
143 121D2 0 CODE 0
144 121EE 0 CODE 0
146 12204 0 CODE 0
Library/Port.c
126 120BC 0 CODE 0
128 120BC 0 CODE 0
129 120C0 0 CODE 0
130 120C8 0 CODE 0
133 120D0 0 CODE 0
134 120EC 0 CODE 0
136 12102 0 CODE 0
Library/Port.c
112 11D7E 0 CODE 0
114 11D7E 0 CODE 0
116 11D82 0 CODE 0
117 11D92 0 CODE 0
118 11D9A 0 CODE 0
121 11DA2 0 CODE 0
122 11DBE 0 CODE 0
124 11DD4 0 CODE 0
Library/Port.c
189 10B4E 0 CODE 0
191 10B4E 0 CODE 0
192 10B5E 0 CODE 0
193 10B62 0 CODE 0
195 10B64 0 CODE 0
199 10B64 0 CODE 0
203 10B84 0 CODE 0
206 10B86 0 CODE 0
207 10B86 0 CODE 0
210 10BA2 0 CODE 0
213 10BC2 0 CODE 0
214 10BE2 0 CODE 0
216 10BE4 0 CODE 0
219 10BE4 0 CODE 0
222 10C00 0 CODE 0
225 10C20 0 CODE 0
226 10C40 0 CODE 0
228 10C42 0 CODE 0
231 10C42 0 CODE 0
234 10C5E 0 CODE 0
237 10C7E 0 CODE 0
239 10C9E 0 CODE 0
193 10CA0 0 CODE 0
241 10CBA 0 CODE 0
244 10CBA 0 CODE 0
Library/Types.c
149 12208 0 CODE 0
151 12208 0 CODE 0
152 1220E 0 CODE 0
153 1222A 0 CODE 0
154 1222A 0 CODE 0
Library/Types.c
83 124BC 0 CODE 0
85 124BC 0 CODE 0
86 124D8 0 CODE 0
Library/Types.c
47 11616 0 CODE 0
49 11616 0 CODE 0
50 11632 0 CODE 0
52 11636 0 CODE 0
54 11638 0 CODE 0
55 1163C 0 CODE 0
56 1163E 0 CODE 0
52 1163E 0 CODE 0
57 11646 0 CODE 0
58 1164E 0 CODE 0
60 11652 0 CODE 0
61 11656 0 CODE 0
62 1167C 0 CODE 0
63 1169C 0 CODE 0
Library/Types.c
220 11CB6 0 CODE 0
230 11CB6 0 CODE 0
232 11CD2 0 CODE 0
234 11CE4 0 CODE 0
235 11CF0 0 CODE 0
237 11D18 0 CODE 0
Library/Types.c
32 12070 0 CODE 0
34 12070 0 CODE 0
35 12074 0 CODE 0
36 1209A 0 CODE 0
37 120BA 0 CODE 0
Library/Port.c
570 10360 0 CODE 0
572 10360 0 CODE 0
573 10376 0 CODE 0
574 10430 0 CODE 0
575 10436 0 CODE 0
576 10462 0 CODE 0
577 10494 0 CODE 0
578 104C0 0 CODE 0
579 104E4 0 CODE 0
580 10510 0 CODE 0
581 1053C 0 CODE 0
584 10568 0 CODE 0
591 10578 0 CODE 0
593 10578 0 CODE 0
594 10594 0 CODE 0
595 10596 0 CODE 0
597 10596 0 CODE 0
598 10598 0 CODE 0
599 105B4 0 CODE 0
600 105B6 0 CODE 0
602 105B6 0 CODE 0
606 105D2 0 CODE 0
587 105D4 0 CODE 0
608 105EC 0 CODE 0
587 105EE 0 CODE 0
612 105F0 0 CODE 0
Library/Types.c
156 12348 0 CODE 0
158 12348 0 CODE 0
159 1234E 0 CODE 0
160 12366 0 CODE 0
161 12366 0 CODE 0
Library/Types.c
87 12514 0 CODE 0
89 12514 0 CODE 0
Library/Types.c
64 11A20 0 CODE 0
66 11A20 0 CODE 0
67 11A44 0 CODE 0
68 11A60 0 CODE 0
70 11A64 0 CODE 0
72 11A66 0 CODE 0
73 11A6A 0 CODE 0
74 11A6C 0 CODE 0
70 11A6C 0 CODE 0
75 11A74 0 CODE 0
76 11A7C 0 CODE 0
78 11A80 0 CODE 0
79 11A8E 0 CODE 0
80 11A92 0 CODE 0
Library/Types.c
110 1408 0 CODE 0
112 1408 0 CODE 0
113 1414 0 CODE 0
Library/Port.c
67 11722 0 CODE 0
69 11724 0 CODE 0
71 11726 0 CODE 0
72 11726 0 CODE 0
73 11730 0 CODE 0
74 11730 0 CODE 0
75 1173A 0 CODE 0
76 1173A 0 CODE 0
77 11744 0 CODE 0
78 11744 0 CODE 0
79 1174E 0 CODE 0
80 1174E 0 CODE 0
81 11758 0 CODE 0
82 11758 0 CODE 0
83 11762 0 CODE 0
84 11762 0 CODE 0
85 1176C 0 CODE 0
86 1176C 0 CODE 0
87 11774 0 CODE 0
69 11776 0 CODE 0
Library/Port.c
21 117A4 0 CODE 0
23 117A6 0 CODE 0
25 117A8 0 CODE 0
26 117A8 0 CODE 0
27 117B2 0 CODE 0
28 117B2 0 CODE 0
29 117BC 0 CODE 0
30 117BC 0 CODE 0
31 117C6 0 CODE 0
32 117C6 0 CODE 0
33 117D0 0 CODE 0
34 117D0 0 CODE 0
35 117DA 0 CODE 0
36 117DA 0 CODE 0
37 117E4 0 CODE 0
38 117E4 0 CODE 0
39 117EE 0 CODE 0
40 117EE 0 CODE 0
41 117F6 0 CODE 0
23 117F8 0 CODE 0
Library/Port.c
44 11826 0 CODE 0
46 11828 0 CODE 0
48 1182A 0 CODE 0
49 1182A 0 CODE 0
50 11834 0 CODE 0
51 11834 0 CODE 0
52 1183E 0 CODE 0
53 1183E 0 CODE 0
54 11848 0 CODE 0
55 11848 0 CODE 0
56 11852 0 CODE 0
57 11852 0 CODE 0
58 1185C 0 CODE 0
59 1185C 0 CODE 0
60 11866 0 CODE 0
61 11866 0 CODE 0
62 11870 0 CODE 0
63 11870 0 CODE 0
64 11878 0 CODE 0
46 1187A 0 CODE 0
main.c
261 124DA 0 CODE 0
262 124DA 0 CODE 0
263 124F6 0 CODE 0
/Applications/microchip/xc8/v1.45/sources/common/memset.c
8 123D6 0 CODE 0
18 123D6 0 CODE 0
19 123DE 0 CODE 0
20 123E0 0 CODE 0
19 123F0 0 CODE 0
main.c
187 12316 0 CODE 0
189 12316 0 CODE 0
190 12318 0 CODE 0
192 1231A 0 CODE 0
193 1231E 0 CODE 0
195 12322 0 CODE 0
196 12324 0 CODE 0
198 12326 0 CODE 0
199 12328 0 CODE 0
201 1232A 0 CODE 0
202 1232C 0 CODE 0
204 1232E 0 CODE 0
205 12330 0 CODE 0
207 12332 0 CODE 0
209 12334 0 CODE 0
210 12336 0 CODE 0
212 12338 0 CODE 0
215 1233A 0 CODE 0
216 12346 0 CODE 0
main.c
174 12240 0 CODE 0
175 12240 0 CODE 0
177 1224C 0 CODE 0
178 12258 0 CODE 0
179 12264 0 CODE 0
181 12268 0 CODE 0
182 12268 0 CODE 0
183 12272 0 CODE 0
/Applications/microchip/xc8/v1.45/sources/common/doprnt.c
464 113CC 0 CODE 0
533 113CC 0 CODE 0
536 113D4 0 CODE 0
538 113D6 0 CODE 0
541 113DE 0 CODE 0
542 113E4 0 CODE 0
543 113E6 0 CODE 0
548 113E6 0 CODE 0
635 113EA 0 CODE 0
802 113EC 0 CODE 0
809 113EC 0 CODE 0
822 113F2 0 CODE 0
635 113F4 0 CODE 0
822 1142E 0 CODE 0
536 1142E 0 CODE 0
Library/Console.c
454 125F6 0 CODE 0
456 125F8 0 CODE 0
457 125FE 0 CODE 0
Library/Console.c
322 10E32 0 CODE 0
324 10E34 0 CODE 0
326 10E36 0 CODE 0
328 10E36 0 CODE 0
329 10E3A 0 CODE 0
330 10E3C 0 CODE 0
331 10E3C 0 CODE 0
332 10E40 0 CODE 0
333 10E42 0 CODE 0
334 10E42 0 CODE 0
335 10E46 0 CODE 0
336 10E48 0 CODE 0
337 10E48 0 CODE 0
338 10E4C 0 CODE 0
339 10E4E 0 CODE 0
340 10E4E 0 CODE 0
341 10E52 0 CODE 0
342 10E54 0 CODE 0
343 10E54 0 CODE 0
344 10E58 0 CODE 0
345 10E5A 0 CODE 0
350 10E5A 0 CODE 0
352 10E90 0 CODE 0
353 10EC0 0 CODE 0
354 10ED8 0 CODE 0
368 10ED8 0 CODE 0
369 10EE2 0 CODE 0
370 10F18 0 CODE 0
372 10F48 0 CODE 0
324 10F4A 0 CODE 0
Library/Console.c
260 114FC 0 CODE 0
262 114FC 0 CODE 0
263 11500 0 CODE 0
264 1151E 0 CODE 0
265 11534 0 CODE 0
266 1153A 0 CODE 0
267 1153A 0 CODE 0
268 1153E 0 CODE 0
265 11542 0 CODE 0
/Applications/microchip/xc8/v1.45/sources/common/awdiv.c
8 1169E 0 CODE 0
14 1169E 0 CODE 0
15 116A2 0 CODE 0
16 116A6 0 CODE 0
17 116AE 0 CODE 0
18 116B2 0 CODE 0
19 116B2 0 CODE 0
20 116B6 0 CODE 0
21 116BE 0 CODE 0
22 116C2 0 CODE 0
23 116C2 0 CODE 0
24 116CA 0 CODE 0
25 116D2 0 CODE 0
26 116D6 0 CODE 0
27 116D8 0 CODE 0
28 116DE 0 CODE 0
29 116E0 0 CODE 0
26 116E0 0 CODE 0
31 116E4 0 CODE 0
32 116EA 0 CODE 0
33 116F6 0 CODE 0
34 116FE 0 CODE 0
35 11700 0 CODE 0
36 11700 0 CODE 0
37 11706 0 CODE 0
39 1170A 0 CODE 0
40 11710 0 CODE 0
41 11718 0 CODE 0
Library/Console.c
243 11EDA 0 CODE 0
246 11EDA 0 CODE 0
248 11EDC 0 CODE 0
249 11EE6 0 CODE 0
250 11F00 0 CODE 0
251 11F04 0 CODE 0
253 11F22 0 CODE 0
254 11F26 0 CODE 0
255 11F2A 0 CODE 0
257 11F2A 0 CODE 0
Library/Console.c
175 1192A 0 CODE 0
178 1192A 0 CODE 0
180 1192C 0 CODE 0
181 11956 0 CODE 0
182 11984 0 CODE 0
183 11986 0 CODE 0
178 11986 0 CODE 0
185 1198C 0 CODE 0
186 11990 0 CODE 0
188 11992 0 CODE 0
189 1199C 0 CODE 0
190 119A4 0 CODE 0
Library/Console.c
192 11B0C 0 CODE 0
195 11B0C 0 CODE 0
196 11B10 0 CODE 0
199 11B14 0 CODE 0
200 11B20 0 CODE 0
201 11B2C 0 CODE 0
200 11B5A 0 CODE 0
199 11B5E 0 CODE 0
204 11B62 0 CODE 0
205 11B68 0 CODE 0
206 11B70 0 CODE 0
207 11B78 0 CODE 0
Library/Console.c
297 124F8 0 CODE 0
299 124F8 0 CODE 0
300 12502 0 CODE 0
303 1250A 0 CODE 0
304 1250E 0 CODE 0
306 12512 0 CODE 0
Library/Console.c
209 11F2E 0 CODE 0
211 11F2E 0 CODE 0
213 11F34 0 CODE 0
216 11F3E 0 CODE 0
218 11F40 0 CODE 0
219 11F42 0 CODE 0
221 11F48 0 CODE 0
222 11F52 0 CODE 0
225 11F5A 0 CODE 0
226 11F5E 0 CODE 0
228 11F60 0 CODE 0
229 11F62 0 CODE 0
231 11F62 0 CODE 0
232 11F6C 0 CODE 0
235 11F74 0 CODE 0
236 11F78 0 CODE 0
238 11F7C 0 CODE 0
240 11F7C 0 CODE 0
241 11F80 0 CODE 0
Library/Console.c
308 12378 0 CODE 0
311 12378 0 CODE 0
315 123A6 0 CODE 0
Library/MXK.c
69 12278 0 CODE 0
71 1227A 0 CODE 0
73 12280 0 CODE 0
74 12288 0 CODE 0
76 1228C 0 CODE 0
78 12290 0 CODE 0
80 12298 0 CODE 0
81 1229C 0 CODE 0
84 122A0 0 CODE 0
85 122AC 0 CODE 0
86 122AC 0 CODE 0
Library/Types.c
255 1218E 0 CODE 0
257 1218E 0 CODE 0
259 12190 0 CODE 0
262 121AC 0 CODE 0
259 121AE 0 CODE 0
257 121BC 0 CODE 0
Library/MXK.c
94 12562 0 CODE 0
96 12562 0 CODE 0
98 12568 0 CODE 0
99 12572 0 CODE 0
101 12576 0 CODE 0
Library/MXK.c
117 125BC 0 CODE 0
121 125BC 0 CODE 0
122 125CA 0 CODE 0
Library/Console.c
293 12600 0 CODE 0
295 12600 0 CODE 0
296 12608 0 CODE 0
Library/Console.c
377 1099C 0 CODE 0
380 1099C 0 CODE 0
383 109A4 0 CODE 0
385 109B4 0 CODE 0
389 109BA 0 CODE 0
390 109BE 0 CODE 0
391 109C2 0 CODE 0
393 109C2 0 CODE 0
394 109C8 0 CODE 0
395 109C8 0 CODE 0
396 109E0 0 CODE 0
397 109EC 0 CODE 0
398 109EC 0 CODE 0
400 10A14 0 CODE 0
401 10A3C 0 CODE 0
403 10A66 0 CODE 0
404 10A92 0 CODE 0
405 10AE8 0 CODE 0
406 10AEA 0 CODE 0
407 10AEA 0 CODE 0
409 10B16 0 CODE 0
396 10B1E 0 CODE 0
411 10B22 0 CODE 0
412 10B2A 0 CODE 0
393 10B32 0 CODE 0
415 10B3C 0 CODE 0
417 10B44 0 CODE 0
418 10B48 0 CODE 0
419 10B4C 0 CODE 0
Library/LCD.c
313 12022 0 CODE 0
315 12022 0 CODE 0
316 12026 0 CODE 0
325 1202A 0 CODE 0
326 12048 0 CODE 0
327 12052 0 CODE 0
328 1205C 0 CODE 0
327 12068 0 CODE 0
326 1206C 0 CODE 0
Library/LCD.c
388 11A96 0 CODE 0
391 11A96 0 CODE 0
392 11A9A 0 CODE 0
393 11AA0 0 CODE 0
394 11AA6 0 CODE 0
396 11AC2 0 CODE 0
398 11AD4 0 CODE 0
399 11ADA 0 CODE 0
398 11AF6 0 CODE 0
/Applications/microchip/xc8/v1.45/sources/common/Umul16.c
15 12478 0 CODE 0
37 12478 0 CODE 0
38 12484 0 CODE 0
39 1248C 0 CODE 0
52 12494 0 CODE 0
Library/LCD.c
209 118A8 0 CODE 0
211 118AA 0 CODE 0
212 118AE 0 CODE 0
213 118B2 0 CODE 0
214 118B6 0 CODE 0
216 118BA 0 CODE 0
217 118C4 0 CODE 0
218 118CE 0 CODE 0
219 118D8 0 CODE 0
220 118E2 0 CODE 0
221 118EC 0 CODE 0
222 118F6 0 CODE 0
223 11900 0 CODE 0
224 1190A 0 CODE 0
225 11914 0 CODE 0
226 1191E 0 CODE 0
227 11928 0 CODE 0
Library/LCD.c
193 125A6 0 CODE 0
195 125A6 0 CODE 0
196 125B0 0 CODE 0
197 125BA 0 CODE 0
Library/LCD.c
66 1252E 0 CODE 0
88 12530 0 CODE 0
89 12536 0 CODE 0
92 12546 0 CODE 0
Library/SPI.c
223 11BE4 0 CODE 0
250 11BE4 0 CODE 0
252 11BE6 0 CODE 0
253 11BE6 0 CODE 0
254 11BF2 0 CODE 0
255 11BF6 0 CODE 0
256 11BFA 0 CODE 0
257 11BFE 0 CODE 0
258 11C0A 0 CODE 0
259 11C0C 0 CODE 0
260 11C0C 0 CODE 0
261 11C18 0 CODE 0
262 11C1C 0 CODE 0
263 11C20 0 CODE 0
264 11C24 0 CODE 0
266 11C30 0 CODE 0
250 11C32 0 CODE 0
Library/LCD.c
39 125DC 0 CODE 0
41 125DE 0 CODE 0
42 125E8 0 CODE 0
Library/Console.c
435 1132C 0 CODE 0
438 1132E 0 CODE 0
440 11332 0 CODE 0
441 1133E 0 CODE 0
443 1134A 0 CODE 0
444 11356 0 CODE 0
445 11356 0 CODE 0
446 11362 0 CODE 0
445 113B6 0 CODE 0
447 113BA 0 CODE 0
443 113BE 0 CODE 0
449 113C2 0 CODE 0
Library/Types.c
38 1242A 0 CODE 0
40 1242A 0 CODE 0
42 1243C 0 CODE 0
43 1244A 0 CODE 0
44 1244E 0 CODE 0
main.c
223 11E2E 0 CODE 0
224 11E2E 0 CODE 0
226 11E30 0 CODE 0
227 11E5A 0 CODE 0
224 11E5A 0 CODE 0
main.c
218 125EA 0 CODE 0
219 125EC 0 CODE 0
220 125F0 0 CODE 0
221 125F4 0 CODE 0
main.c
244 11466 0 CODE 0
247 11466 0 CODE 0
248 1146E 0 CODE 0
249 11476 0 CODE 0
250 1148E 0 CODE 0
251 1148E 0 CODE 0
252 114A0 0 CODE 0
253 114AC 0 CODE 0
255 114D4 0 CODE 0
256 114F0 0 CODE 0
257 114F4 0 CODE 0
249 114F4 0 CODE 0
259 114FA 0 CODE 0
/Applications/microchip/xc8/v1.45/sources/common/strtok.c
8 111CE 0 CODE 0
18 111CE 0 CODE 0
19 111D6 0 CODE 0
20 111DE 0 CODE 0
21 111E6 0 CODE 0
22 111F0 0 CODE 0
23 1120C 0 CODE 0
24 1121A 0 CODE 0
25 1122E 0 CODE 0
26 11250 0 CODE 0
27 1125E 0 CODE 0
28 11270 0 CODE 0
29 11270 0 CODE 0
30 11278 0 CODE 0
/Applications/microchip/xc8/v1.45/sources/common/strspn.c
4 11F82 0 CODE 0
8 11F82 0 CODE 0
9 11F8A 0 CODE 0
10 11F8C 0 CODE 0
11 11F90 0 CODE 0
12 11F94 0 CODE 0
9 11F94 0 CODE 0
13 11FC8 0 CODE 0
14 11FD0 0 CODE 0
/Applications/microchip/xc8/v1.45/sources/common/strcspn.c
4 11FD2 0 CODE 0
8 11FD2 0 CODE 0
9 11FDA 0 CODE 0
10 11FDC 0 CODE 0
11 11FE0 0 CODE 0
12 11FE4 0 CODE 0
9 11FE4 0 CODE 0
13 12018 0 CODE 0
14 12020 0 CODE 0
/Applications/microchip/xc8/v1.45/sources/common/strchr.c
4 1214A 0 CODE 0
7 1214A 0 CODE 0
8 12160 0 CODE 0
9 1216A 0 CODE 0
10 12184 0 CODE 0
Library/Types.c
240 11E84 0 CODE 0
243 11E84 0 CODE 0
246 11E86 0 CODE 0
249 11EA8 0 CODE 0
246 11EAA 0 CODE 0
243 11EB8 0 CODE 0
253 11EC8 0 CODE 0
254 11ED8 0 CODE 0
main.c
234 125CC 0 CODE 0
235 125CC 0 CODE 0
237 125D0 0 CODE 0
238 125D2 0 CODE 0
239 125D4 0 CODE 0
240 125D4 0 CODE 0
241 125D8 0 CODE 0
